{
    "data": [
        {
            "id": "eb4c969e-5b25-4eb9-8521-7f5e08b3e3a5",
            "first_name": "John",
            "last_name": "Doe",
            "email": "johndoe@email.com",
            "phone": "8038392211",
            "dmv_license_number": "12334567879887",
            "dmv_license_exp_date": "23-08-2024",
            "tlc_license_number": "987656738",
            "vehicle_class": "Black",
            "vehicle_make": "Ford",
            "profile_complete": 1,
            "status": "1",
            "rating": "4.5",
            "created_at": "2024-06-14T10:52:35+00:00",
            "updated_at": "2024-06-14T10:52:35+00:00"
        },
        {
            "id": "eb4c969e-5b25-4eb9-8521-7f5e08b3e3a5",
            "first_name": "Jerry",
            "last_name": "Palisdero",
            "email": "johndoe@email.com",
            "phone": "8038392211",
            "dmv_license_number": "12334567879887",
            "dmv_license_exp_date": "23-08-2024",
            "tlc_license_number": "987656738",
            "vehicle_class": "Black",
            "vehicle_make": "Ford",
            "profile_complete": 1,
            "status": "1",
            "rating": "4.0",
            "created_at": "2024-06-14T10:52:35+00:00",
            "updated_at": "2024-06-14T10:52:35+00:00"
        },
        {
            "id": "eb4c969e-5b25-4eb9-8521-7f5e08b3e3a5",
            "first_name": "Henry",
            "last_name": "Leaker",
            "email": "johndoe@email.com",
            "phone": "8038392211",
            "dmv_license_number": "12334567879887",
            "dmv_license_exp_date": "23-08-2024",
            "tlc_license_number": "987656738",
            "vehicle_class": "Black",
            "vehicle_make": "Ford",
            "profile_complete": 1,
            "status": "1",
            "rating": "2.5",
            "created_at": "2024-06-14T10:52:35+00:00",
            "updated_at": "2024-06-14T10:52:35+00:00"
        },
        {
            "id": "eb4c969e-5b25-4eb9-8521-7f5e08b3e3a5",
            "first_name": "Michael",
            "last_name": "Jordan",
            "email": "johndoe@email.com",
            "phone": "8038392211",
            "dmv_license_number": "12334567879887",
            "dmv_license_exp_date": "23-08-2024",
            "tlc_license_number": "987656738",
            "vehicle_class": "Black",
            "vehicle_make": "Ford",
            "profile_complete": 1,
            "status": "1",
            "rating": "3.5",
            "created_at": "2024-06-14T10:52:35+00:00",
            "updated_at": "2024-06-14T10:52:35+00:00"
        }
    ],
    "links": {
        "first": "https://driverscoopbackend.com/api/riders?page=1",
        "last": "https://driverscoopbackend.com/api/riders?page=50",
        "prev": null,
        "next": "https://driverscoopbackend.com/api/riders?page=2"
    },
    "meta": {
        "current_page": 1,
        "from": 1,
        "last_page": 50,
        "path": "https://driverscoopbackend.com/api/riders",
        "per_page": 15,
        "to": 15,
        "total": 750
    }
}
