{
    "data": [
        {
            "id": "eb4c969e-5b25-4eb9-8521-7f5e08b3e3a5",
            "first_name": "John",
            "last_name": "Doe",
            "email": "johndoe@email.com",
            "phone": "8038392211",
            "profile_complete": 1,
            "status": "1",
            "created_at": "2024-06-14T10:52:35+00:00",
            "updated_at": "2024-06-14T10:52:35+00:00"
        },
        {
            "id": "eb4c969e-5b25-4eb9-8521-7f5e08b3e3a5",
            "first_name": "Garrt",
            "last_name": "Linus",
            "email": "g.linus@email.com",
            "phone": "8038392211",
            "profile_complete": 1,
            "status": "1",
            "created_at": "2024-06-14T10:52:35+00:00",
            "updated_at": "2024-06-14T10:52:35+00:00"
        },
        {
            "id": "eb4c969e-5b25-4eb9-8521-7f5e08b3e3a5",
            "first_name": "Frank",
            "last_name": "Linous",
            "email": "Francklim@email.com",
            "phone": "8038392211",
            "profile_complete": 1,
            "status": "2",
            "created_at": "2024-06-14T10:52:35+00:00",
            "updated_at": "2024-06-14T10:52:35+00:00"
        },
        {
            "id": "eb4c969e-5b25-4eb9-8521-7f5e08b3e3a5",
            "first_name": "John",
            "last_name": "Doe",
            "email": "johndoe@email.com",
            "phone": "8038392211",
            "profile_complete": 1,
            "status": "1",
            "created_at": "2024-06-14T10:52:35+00:00",
            "updated_at": "2024-06-14T10:52:35+00:00"
        },
        {
            "id": "eb4c969e-5b25-4eb9-8521-7f5e08b3e3a5",
            "first_name": "John",
            "last_name": "Desmond",
            "email": "johndesmond@email.com",
            "phone": "8038392211",
            "profile_complete": 1,
            "status": "2",
            "created_at": "2024-06-14T10:52:35+00:00",
            "updated_at": "2024-06-14T10:52:35+00:00"
        },
        {
            "id": "eb4c969e-5b25-4eb9-8521-7f5e08b3e3a5",
            "first_name": "Harry",
            "last_name": "Damielo",
            "email": "harryd@email.com",
            "phone": "8038392211",
            "profile_complete": 1,
            "status": "1",
            "created_at": "2024-06-14T10:52:35+00:00",
            "updated_at": "2024-06-14T10:52:35+00:00"
        },
        {
            "id": "eb4c969e-5b25-4eb9-8521-7f5e08b3e3a5",
            "first_name": "John",
            "last_name": "Prince",
            "email": "johnprince@email.com",
            "phone": "8038392211",
            "profile_complete": 1,
            "status": "1",
            "created_at": "2024-06-14T10:52:35+00:00",
            "updated_at": "2024-06-14T10:52:35+00:00"
        },
        {
            "id": "eb4c969e-5b25-4eb9-8521-7f5e08b3e123",
            "first_name": "",
            "last_name": "",
            "email": "josiah@email.com",
            "phone": "",
            "profile_complete": 0,
            "status": "0",
            "created_at": "2024-06-14T10:52:35+00:00",
            "updated_at": "2024-06-14T10:52:35+00:00"
        },
        {
            "id": "eb4c969e-5b25-4eb9-8521-123e08b3e3a5",
            "first_name": "",
            "last_name": "",
            "email": "Michael@email.com",
            "phone": "",
            "profile_complete": 0,
            "status": "0",
            "created_at": "2024-06-14T10:52:35+00:00",
            "updated_at": "2024-06-14T10:52:35+00:00"
        },
        {
            "id": "eb4c969e-5b25-4eb9-8521-7f5e081233a5",
            "first_name": "",
            "last_name": "",
            "email": "jame@email.com",
            "phone": "",
            "profile_complete": 0,
            "status": "0",
            "created_at": "2024-06-14T10:52:35+00:00",
            "updated_at": "2024-06-14T10:52:35+00:00"
        }
    ],
    "links": {
        "first": "https://driverscoopbackend.com/api/riders?page=1",
        "last": "https://driverscoopbackend.com/api/riders?page=50",
        "prev": null,
        "next": "https://driverscoopbackend.com/api/riders?page=2"
    },
    "meta": {
        "current_page": 1,
        "from": 1,
        "last_page": 50,
        "path": "https://driverscoopbackend.com/api/riders",
        "per_page": 15,
        "to": 15,
        "total": 750
    }
}
